{
  "buyer-electrokart-com": {
    "AnchorPeers": {
      "mod_policy": "Admins",
      "value": {
        "anchor_peers": [
           { "host": "192.168.68.157", "port": "7005" }
        ]
      },
      "version": "0"
    }
  },
  "dealer-electrokart-com": {
    "AnchorPeers": {
      "mod_policy": "Admins",
      "value": {
        "anchor_peers": [
           { "host": "192.168.68.157", "port": "7004" }
        ]
      },
      "version": "0"
    }
  },
  "manufacturer-electrokart-com": {
    "AnchorPeers": {
      "mod_policy": "Admins",
      "value": {
        "anchor_peers": [
           { "host": "192.168.68.157", "port": "7003" }
        ]
      },
      "version": "0"
    }
  }
}
