{
  "name": "8bd7ac7784_net",
  "x-comment-0": "ROOTPATH should be set to the absolute path of crypto material starting directory",
  "x-comment-1": "for example: export ROOTPATH=/home/ubuntu/mywork/vars/keyfiles",
  "x-type": "hlfv-2.3.0",
  "version": "1.0.0",
  "client": {
    "organization": "dealer.electrokart.com",
    "cryptoconfig": {
      "path": "${ROOTPATH}"
    },
    "connection": {
      "timeout": {
        "peer": { "endorser": "300", "eventHub": "300", "eventReg": "300"},
        "orderer": "300"
      }
    }
  },
  "channels": {
    "appliancechannel": {
      "orderers": [
        "orderer1.electrokart.com",
        "orderer2.electrokart.com",
        "orderer3.electrokart.com"
      ],
      "peers": {
        "peer1.manufacturer.electrokart.com": {
          "endorsingPeer": true, "chaincodeQuery": true, "eventSource": true
        },
        "peer1.dealer.electrokart.com": {
          "endorsingPeer": true, "chaincodeQuery": true, "eventSource": true
        },
        "peer1.buyer.electrokart.com": {
          "endorsingPeer": true, "chaincodeQuery": true, "eventSource": true
        }
      }
    }
  },
  "organizations": {
    "buyer.electrokart.com": {
      "mspid": "buyer-electrokart-com",
      "cryptoPath": "peerOrganizations/buyer.electrokart.com/users/{username}@buyer.electrokart.com/msp",
      "peers": [
        "peer1.buyer.electrokart.com"
      ],
      "certificateAuthorities": [
       "ca1.buyer.electrokart.com"
      ]
    },
    "dealer.electrokart.com": {
      "mspid": "dealer-electrokart-com",
      "cryptoPath": "peerOrganizations/dealer.electrokart.com/users/{username}@dealer.electrokart.com/msp",
      "peers": [
        "peer1.dealer.electrokart.com"
      ],
      "certificateAuthorities": [
       "ca1.dealer.electrokart.com"
      ]
    },
    "electrokart.com": {
      "mspid": "electrokart-com",
      "cryptoPath": "ordererOrganizations/electrokart.com/users/{username}@electrokart.com/msp",
      "orderers": [
        "orderer1.electrokart.com",
        "orderer2.electrokart.com",
        "orderer3.electrokart.com"
      ],
      "certificateAuthorities": [
      ]
    },
    "manufacturer.electrokart.com": {
      "mspid": "manufacturer-electrokart-com",
      "cryptoPath": "peerOrganizations/manufacturer.electrokart.com/users/{username}@manufacturer.electrokart.com/msp",
      "peers": [
        "peer1.manufacturer.electrokart.com"
      ],
      "certificateAuthorities": [
       "ca1.manufacturer.electrokart.com"
      ]
    }
  },
  "orderers": {
    "orderer1.electrokart.com": {
      "url": "grpcs://192.168.68.157:7009",
      "grpcOptions": {
        "ssl-target-name-override": "orderer1.electrokart.com"
      },
      "tlsCACerts": {
        "pem": "-----BEGIN CERTIFICATE-----\nMIICujCCAmCgAwIBAgIUBBK5jZcj2b/WoTYytbtFDvpIOkIwCgYIKoZIzj0EAwIw\ncjELMAkGA1UEBhMCVVMxFzAVBgNVBAgMDk5vcnRoIENhcm9saW5hMRAwDgYDVQQH\nDAdSYWxlaWdoMRgwFgYDVQQKDA9lbGVjdHJva2FydC5jb20xHjAcBgNVBAMMFXRs\nc2NhLmVsZWN0cm9rYXJ0LmNvbTAeFw0yMjEwMjcwOTI0MTdaFw0zMjEwMjQwOTI0\nMTdaMHIxCzAJBgNVBAYTAlVTMRcwFQYDVQQIDA5Ob3J0aCBDYXJvbGluYTEQMA4G\nA1UEBwwHUmFsZWlnaDEYMBYGA1UECgwPZWxlY3Ryb2thcnQuY29tMR4wHAYDVQQD\nDBV0bHNjYS5lbGVjdHJva2FydC5jb20wWTATBgcqhkjOPQIBBggqhkjOPQMBBwNC\nAASS2p/8yDA285wOunhinAG94QCvtCaVkLufQFyXMF9UDbp4bGZETWONtu0a8Jsq\nxeTp3GacBD+P5cCpqcuS3lfSo4HTMIHQMB0GA1UdDgQWBBS6LLyeBA1OqNB21uzo\nSN2ahvNQQjAfBgNVHSMEGDAWgBS6LLyeBA1OqNB21uzoSN2ahvNQQjAPBgNVHRMB\nAf8EBTADAQH/MA4GA1UdDwEB/wQEAwIBpjAdBgNVHSUEFjAUBggrBgEFBQcDAQYI\nKwYBBQUHAwIwTgYDVR0RBEcwRYcEwKhEnYIVdGxzY2EuZWxlY3Ryb2thcnQuY29t\nghV0bHNjYS1lbGVjdHJva2FydC1jb22CCWxvY2FsaG9zdIcEfwAAATAKBggqhkjO\nPQQDAgNIADBFAiEAo5DpP7dl2y73/DjEde3Iawi2sswdcvBDV7zBV3O48GYCIHKS\nUFwFxBTIU/652TBzVLdGXzoMRCf6dhLkiazeYTCy\n-----END CERTIFICATE-----"
      }
    },
    "orderer2.electrokart.com": {
      "url": "grpcs://192.168.68.157:7010",
      "grpcOptions": {
        "ssl-target-name-override": "orderer2.electrokart.com"
      },
      "tlsCACerts": {
        "pem": "-----BEGIN CERTIFICATE-----\nMIICujCCAmCgAwIBAgIUBBK5jZcj2b/WoTYytbtFDvpIOkIwCgYIKoZIzj0EAwIw\ncjELMAkGA1UEBhMCVVMxFzAVBgNVBAgMDk5vcnRoIENhcm9saW5hMRAwDgYDVQQH\nDAdSYWxlaWdoMRgwFgYDVQQKDA9lbGVjdHJva2FydC5jb20xHjAcBgNVBAMMFXRs\nc2NhLmVsZWN0cm9rYXJ0LmNvbTAeFw0yMjEwMjcwOTI0MTdaFw0zMjEwMjQwOTI0\nMTdaMHIxCzAJBgNVBAYTAlVTMRcwFQYDVQQIDA5Ob3J0aCBDYXJvbGluYTEQMA4G\nA1UEBwwHUmFsZWlnaDEYMBYGA1UECgwPZWxlY3Ryb2thcnQuY29tMR4wHAYDVQQD\nDBV0bHNjYS5lbGVjdHJva2FydC5jb20wWTATBgcqhkjOPQIBBggqhkjOPQMBBwNC\nAASS2p/8yDA285wOunhinAG94QCvtCaVkLufQFyXMF9UDbp4bGZETWONtu0a8Jsq\nxeTp3GacBD+P5cCpqcuS3lfSo4HTMIHQMB0GA1UdDgQWBBS6LLyeBA1OqNB21uzo\nSN2ahvNQQjAfBgNVHSMEGDAWgBS6LLyeBA1OqNB21uzoSN2ahvNQQjAPBgNVHRMB\nAf8EBTADAQH/MA4GA1UdDwEB/wQEAwIBpjAdBgNVHSUEFjAUBggrBgEFBQcDAQYI\nKwYBBQUHAwIwTgYDVR0RBEcwRYcEwKhEnYIVdGxzY2EuZWxlY3Ryb2thcnQuY29t\nghV0bHNjYS1lbGVjdHJva2FydC1jb22CCWxvY2FsaG9zdIcEfwAAATAKBggqhkjO\nPQQDAgNIADBFAiEAo5DpP7dl2y73/DjEde3Iawi2sswdcvBDV7zBV3O48GYCIHKS\nUFwFxBTIU/652TBzVLdGXzoMRCf6dhLkiazeYTCy\n-----END CERTIFICATE-----"
      }
    },
    "orderer3.electrokart.com": {
      "url": "grpcs://192.168.68.157:7011",
      "grpcOptions": {
        "ssl-target-name-override": "orderer3.electrokart.com"
      },
      "tlsCACerts": {
        "pem": "-----BEGIN CERTIFICATE-----\nMIICujCCAmCgAwIBAgIUBBK5jZcj2b/WoTYytbtFDvpIOkIwCgYIKoZIzj0EAwIw\ncjELMAkGA1UEBhMCVVMxFzAVBgNVBAgMDk5vcnRoIENhcm9saW5hMRAwDgYDVQQH\nDAdSYWxlaWdoMRgwFgYDVQQKDA9lbGVjdHJva2FydC5jb20xHjAcBgNVBAMMFXRs\nc2NhLmVsZWN0cm9rYXJ0LmNvbTAeFw0yMjEwMjcwOTI0MTdaFw0zMjEwMjQwOTI0\nMTdaMHIxCzAJBgNVBAYTAlVTMRcwFQYDVQQIDA5Ob3J0aCBDYXJvbGluYTEQMA4G\nA1UEBwwHUmFsZWlnaDEYMBYGA1UECgwPZWxlY3Ryb2thcnQuY29tMR4wHAYDVQQD\nDBV0bHNjYS5lbGVjdHJva2FydC5jb20wWTATBgcqhkjOPQIBBggqhkjOPQMBBwNC\nAASS2p/8yDA285wOunhinAG94QCvtCaVkLufQFyXMF9UDbp4bGZETWONtu0a8Jsq\nxeTp3GacBD+P5cCpqcuS3lfSo4HTMIHQMB0GA1UdDgQWBBS6LLyeBA1OqNB21uzo\nSN2ahvNQQjAfBgNVHSMEGDAWgBS6LLyeBA1OqNB21uzoSN2ahvNQQjAPBgNVHRMB\nAf8EBTADAQH/MA4GA1UdDwEB/wQEAwIBpjAdBgNVHSUEFjAUBggrBgEFBQcDAQYI\nKwYBBQUHAwIwTgYDVR0RBEcwRYcEwKhEnYIVdGxzY2EuZWxlY3Ryb2thcnQuY29t\nghV0bHNjYS1lbGVjdHJva2FydC1jb22CCWxvY2FsaG9zdIcEfwAAATAKBggqhkjO\nPQQDAgNIADBFAiEAo5DpP7dl2y73/DjEde3Iawi2sswdcvBDV7zBV3O48GYCIHKS\nUFwFxBTIU/652TBzVLdGXzoMRCf6dhLkiazeYTCy\n-----END CERTIFICATE-----"
      }
    }
  },
  "peers": {
    "peer1.manufacturer.electrokart.com": {
      "url": "grpcs://192.168.68.157:7003",
      "grpcOptions": {
        "ssl-target-name-override": "peer1.manufacturer.electrokart.com"
      },
      "tlsCACerts": {
        "pem": "-----BEGIN CERTIFICATE-----\nMIIDDTCCArSgAwIBAgIUIlDb3KdC9pKfh9m/oQfnn5dZGvEwCgYIKoZIzj0EAwIw\ngY0xCzAJBgNVBAYTAlVTMRcwFQYDVQQIDA5Ob3J0aCBDYXJvbGluYTEQMA4GA1UE\nBwwHUmFsZWlnaDElMCMGA1UECgwcbWFudWZhY3R1cmVyLmVsZWN0cm9rYXJ0LmNv\nbTEsMCoGA1UEAwwjdGxzY2ExLm1hbnVmYWN0dXJlci5lbGVjdHJva2FydC5jb20w\nHhcNMjIxMDI3MDkyNDM3WhcNMzIxMDI0MDkyNDM3WjCBjTELMAkGA1UEBhMCVVMx\nFzAVBgNVBAgMDk5vcnRoIENhcm9saW5hMRAwDgYDVQQHDAdSYWxlaWdoMSUwIwYD\nVQQKDBxtYW51ZmFjdHVyZXIuZWxlY3Ryb2thcnQuY29tMSwwKgYDVQQDDCN0bHNj\nYTEubWFudWZhY3R1cmVyLmVsZWN0cm9rYXJ0LmNvbTBZMBMGByqGSM49AgEGCCqG\nSM49AwEHA0IABH58ovKuoHf6vzLvhd5av8uLkXJx+pgCcAN8cPT+sAMRbNgLV9hq\n/8Dad07rDOoaXBbqzyAR/cVE1UKvZlvLe6Kjge8wgewwHQYDVR0OBBYEFA8yDNFE\nIgozFJnOD8EUAdfpX586MB8GA1UdIwQYMBaAFA8yDNFEIgozFJnOD8EUAdfpX586\nMA8GA1UdEwEB/wQFMAMBAf8wDgYDVR0PAQH/BAQDAgGmMB0GA1UdJQQWMBQGCCsG\nAQUFBwMBBggrBgEFBQcDAjBqBgNVHREEYzBhhwTAqESdgiN0bHNjYTEubWFudWZh\nY3R1cmVyLmVsZWN0cm9rYXJ0LmNvbYIjdGxzY2ExLW1hbnVmYWN0dXJlci1lbGVj\ndHJva2FydC1jb22CCWxvY2FsaG9zdIcEfwAAATAKBggqhkjOPQQDAgNHADBEAiAj\nfHZp0VbMnecHmZCHo/AC297zhAT0uT1ut4FSALipxQIgUA9QTm7dob2EZUwzgslI\nf+OtZUxVAoGWMAySD4VbOx4=\n-----END CERTIFICATE-----"
      }
    },
    "peer1.dealer.electrokart.com": {
      "url": "grpcs://192.168.68.157:7004",
      "grpcOptions": {
        "ssl-target-name-override": "peer1.dealer.electrokart.com"
      },
      "tlsCACerts": {
        "pem": "-----BEGIN CERTIFICATE-----\nMIIC6jCCApCgAwIBAgIUKq2xRvKokFXwn0SFdgBwFYOPfPkwCgYIKoZIzj0EAwIw\ngYExCzAJBgNVBAYTAlVTMRcwFQYDVQQIDA5Ob3J0aCBDYXJvbGluYTEQMA4GA1UE\nBwwHUmFsZWlnaDEfMB0GA1UECgwWZGVhbGVyLmVsZWN0cm9rYXJ0LmNvbTEmMCQG\nA1UEAwwddGxzY2ExLmRlYWxlci5lbGVjdHJva2FydC5jb20wHhcNMjIxMDI3MDky\nNDA1WhcNMzIxMDI0MDkyNDA1WjCBgTELMAkGA1UEBhMCVVMxFzAVBgNVBAgMDk5v\ncnRoIENhcm9saW5hMRAwDgYDVQQHDAdSYWxlaWdoMR8wHQYDVQQKDBZkZWFsZXIu\nZWxlY3Ryb2thcnQuY29tMSYwJAYDVQQDDB10bHNjYTEuZGVhbGVyLmVsZWN0cm9r\nYXJ0LmNvbTBZMBMGByqGSM49AgEGCCqGSM49AwEHA0IABJSOfJLZAlp0gKM/+WOu\nlVliHKo45JjEbrzuIg1TEY+7mkyrWGETFkjjGNBbMBzgEoOm2NclOl4dFp7dwV5D\nKnqjgeMwgeAwHQYDVR0OBBYEFDJ4WpyuV/NvSv14CJ/uqMVaNmEYMB8GA1UdIwQY\nMBaAFDJ4WpyuV/NvSv14CJ/uqMVaNmEYMA8GA1UdEwEB/wQFMAMBAf8wDgYDVR0P\nAQH/BAQDAgGmMB0GA1UdJQQWMBQGCCsGAQUFBwMBBggrBgEFBQcDAjBeBgNVHREE\nVzBVhwTAqESdgh10bHNjYTEuZGVhbGVyLmVsZWN0cm9rYXJ0LmNvbYIddGxzY2Ex\nLWRlYWxlci1lbGVjdHJva2FydC1jb22CCWxvY2FsaG9zdIcEfwAAATAKBggqhkjO\nPQQDAgNIADBFAiEAzk5Eo88xNTC4Kehw4Tfw9MA92LixRH4fCcbgosHNk8ECIAzw\nc8wz1nCLO9yc+Ppinumswm1q0dQAe0I9BdBPjjxc\n-----END CERTIFICATE-----"
      }
    },
    "peer1.buyer.electrokart.com": {
      "url": "grpcs://192.168.68.157:7005",
      "grpcOptions": {
        "ssl-target-name-override": "peer1.buyer.electrokart.com"
      },
      "tlsCACerts": {
        "pem": "-----BEGIN CERTIFICATE-----\nMIIC4TCCAoigAwIBAgIUGl2+u8NV22GEsVHkVu96/oQ/8XQwCgYIKoZIzj0EAwIw\nfzELMAkGA1UEBhMCVVMxFzAVBgNVBAgMDk5vcnRoIENhcm9saW5hMRAwDgYDVQQH\nDAdSYWxlaWdoMR4wHAYDVQQKDBVidXllci5lbGVjdHJva2FydC5jb20xJTAjBgNV\nBAMMHHRsc2NhMS5idXllci5lbGVjdHJva2FydC5jb20wHhcNMjIxMDI3MDkyMzUy\nWhcNMzIxMDI0MDkyMzUyWjB/MQswCQYDVQQGEwJVUzEXMBUGA1UECAwOTm9ydGgg\nQ2Fyb2xpbmExEDAOBgNVBAcMB1JhbGVpZ2gxHjAcBgNVBAoMFWJ1eWVyLmVsZWN0\ncm9rYXJ0LmNvbTElMCMGA1UEAwwcdGxzY2ExLmJ1eWVyLmVsZWN0cm9rYXJ0LmNv\nbTBZMBMGByqGSM49AgEGCCqGSM49AwEHA0IABEL6jVKAX3SbP9gh8wVppceFUV1H\nT/RO+PD4DEw/LkntoF13gq3cIpiRI11WGYrG2vK6t591x2LW8syaG9IGi/CjgeEw\ngd4wHQYDVR0OBBYEFAoFpqtU7D++6YGIDLGnLC7vk/N5MB8GA1UdIwQYMBaAFAoF\npqtU7D++6YGIDLGnLC7vk/N5MA8GA1UdEwEB/wQFMAMBAf8wDgYDVR0PAQH/BAQD\nAgGmMB0GA1UdJQQWMBQGCCsGAQUFBwMBBggrBgEFBQcDAjBcBgNVHREEVTBThwTA\nqESdghx0bHNjYTEuYnV5ZXIuZWxlY3Ryb2thcnQuY29tghx0bHNjYTEtYnV5ZXIt\nZWxlY3Ryb2thcnQtY29tgglsb2NhbGhvc3SHBH8AAAEwCgYIKoZIzj0EAwIDRwAw\nRAIgfXq+c5h50qFfNOBYIhaNBTK3GgG1d5iq5mtwPJ8xgMoCIDUCOoM6xW5vhX5Q\nbFP6TkJ0OuXUx0sQomAigo8cZEEv\n-----END CERTIFICATE-----"
      }
    }
  },
  "certificateAuthorities": {
    "ca1.manufacturer.electrokart.com": {
      "url": "https://192.168.68.157:7000",
      "tlsCACerts": {
        "pem": ["-----BEGIN CERTIFICATE-----\nMIIDATCCAqigAwIBAgIUV107ur7PMWshg1rc6v8bkU0AiXswCgYIKoZIzj0EAwIw\ngYoxCzAJBgNVBAYTAlVTMRcwFQYDVQQIDA5Ob3J0aCBDYXJvbGluYTEQMA4GA1UE\nBwwHUmFsZWlnaDElMCMGA1UECgwcbWFudWZhY3R1cmVyLmVsZWN0cm9rYXJ0LmNv\nbTEpMCcGA1UEAwwgY2ExLm1hbnVmYWN0dXJlci5lbGVjdHJva2FydC5jb20wHhcN\nMjIxMDI3MDkyNDM3WhcNMzIxMDI0MDkyNDM3WjCBijELMAkGA1UEBhMCVVMxFzAV\nBgNVBAgMDk5vcnRoIENhcm9saW5hMRAwDgYDVQQHDAdSYWxlaWdoMSUwIwYDVQQK\nDBxtYW51ZmFjdHVyZXIuZWxlY3Ryb2thcnQuY29tMSkwJwYDVQQDDCBjYTEubWFu\ndWZhY3R1cmVyLmVsZWN0cm9rYXJ0LmNvbTBZMBMGByqGSM49AgEGCCqGSM49AwEH\nA0IABBf42/m7jCNs7RABjmNSgyzBfquhBBRiTG5mhIumcr5scba5lTwEMUZrhud2\nanPkMwunJlA7XaaVsGjtKRg8hc6jgekwgeYwHQYDVR0OBBYEFEsUQ7vt9gmYlu/R\nEKulH771JylIMB8GA1UdIwQYMBaAFEsUQ7vt9gmYlu/REKulH771JylIMA8GA1Ud\nEwEB/wQFMAMBAf8wDgYDVR0PAQH/BAQDAgGmMB0GA1UdJQQWMBQGCCsGAQUFBwMB\nBggrBgEFBQcDAjBkBgNVHREEXTBbhwTAqESdgiBjYTEubWFudWZhY3R1cmVyLmVs\nZWN0cm9rYXJ0LmNvbYIgY2ExLW1hbnVmYWN0dXJlci1lbGVjdHJva2FydC1jb22C\nCWxvY2FsaG9zdIcEfwAAATAKBggqhkjOPQQDAgNHADBEAiBgaL9iJMF02C4Aw1eQ\nPD3zL1IId63sR3vs5Jyvu/Zk+gIgIf8ypTE9VKoeIORCQNQ97Zw5ctFXND0IqH2O\niYDBclo=\n-----END CERTIFICATE-----"]
      },
      "httpOptions": { "verify": "false" },
      "caName": "ca1",
      "registrar": { "enrollId": "admin", "enrollSecret": "adminpw" }
    },
    "ca1.dealer.electrokart.com": {
      "url": "https://192.168.68.157:7001",
      "tlsCACerts": {
        "pem": ["-----BEGIN CERTIFICATE-----\nMIIC3TCCAoKgAwIBAgIUcHhruy8SuWTImPMYvVWEGuZlKCgwCgYIKoZIzj0EAwIw\nfjELMAkGA1UEBhMCVVMxFzAVBgNVBAgMDk5vcnRoIENhcm9saW5hMRAwDgYDVQQH\nDAdSYWxlaWdoMR8wHQYDVQQKDBZkZWFsZXIuZWxlY3Ryb2thcnQuY29tMSMwIQYD\nVQQDDBpjYTEuZGVhbGVyLmVsZWN0cm9rYXJ0LmNvbTAeFw0yMjEwMjcwOTI0MDRa\nFw0zMjEwMjQwOTI0MDRaMH4xCzAJBgNVBAYTAlVTMRcwFQYDVQQIDA5Ob3J0aCBD\nYXJvbGluYTEQMA4GA1UEBwwHUmFsZWlnaDEfMB0GA1UECgwWZGVhbGVyLmVsZWN0\ncm9rYXJ0LmNvbTEjMCEGA1UEAwwaY2ExLmRlYWxlci5lbGVjdHJva2FydC5jb20w\nWTATBgcqhkjOPQIBBggqhkjOPQMBBwNCAARWGWTwJ34AwDjrTobIXPOYVU4AAsIW\naRQuKG3yJ9J/RfLDsDFECllntyTcSUrTgH3aVHB7QzwpdSlNc5773u5Ho4HdMIHa\nMB0GA1UdDgQWBBSOJfbtNHxOheIL5VdDIFa++va5HDAfBgNVHSMEGDAWgBSOJfbt\nNHxOheIL5VdDIFa++va5HDAPBgNVHRMBAf8EBTADAQH/MA4GA1UdDwEB/wQEAwIB\npjAdBgNVHSUEFjAUBggrBgEFBQcDAQYIKwYBBQUHAwIwWAYDVR0RBFEwT4cEwKhE\nnYIaY2ExLmRlYWxlci5lbGVjdHJva2FydC5jb22CGmNhMS1kZWFsZXItZWxlY3Ry\nb2thcnQtY29tgglsb2NhbGhvc3SHBH8AAAEwCgYIKoZIzj0EAwIDSQAwRgIhANoo\ngPeuXfzAaX+yEkfDStuRAiM3IWOZ46ujvtResFSqAiEA12ISSUGx8axiLApGSpGh\nN2r0IRTgWMJ6Fab6CEvKXTQ=\n-----END CERTIFICATE-----"]
      },
      "httpOptions": { "verify": "false" },
      "caName": "ca1",
      "registrar": { "enrollId": "admin", "enrollSecret": "adminpw" }
    },
    "ca1.buyer.electrokart.com": {
      "url": "https://192.168.68.157:7002",
      "tlsCACerts": {
        "pem": ["-----BEGIN CERTIFICATE-----\nMIIC1jCCAnygAwIBAgIUE2G79by3kEfv4e8n/vend3dJAhowCgYIKoZIzj0EAwIw\nfDELMAkGA1UEBhMCVVMxFzAVBgNVBAgMDk5vcnRoIENhcm9saW5hMRAwDgYDVQQH\nDAdSYWxlaWdoMR4wHAYDVQQKDBVidXllci5lbGVjdHJva2FydC5jb20xIjAgBgNV\nBAMMGWNhMS5idXllci5lbGVjdHJva2FydC5jb20wHhcNMjIxMDI3MDkyMzUyWhcN\nMzIxMDI0MDkyMzUyWjB8MQswCQYDVQQGEwJVUzEXMBUGA1UECAwOTm9ydGggQ2Fy\nb2xpbmExEDAOBgNVBAcMB1JhbGVpZ2gxHjAcBgNVBAoMFWJ1eWVyLmVsZWN0cm9r\nYXJ0LmNvbTEiMCAGA1UEAwwZY2ExLmJ1eWVyLmVsZWN0cm9rYXJ0LmNvbTBZMBMG\nByqGSM49AgEGCCqGSM49AwEHA0IABHv/0h0z/lGrNvKgxyyKivI+ZdjsYr/v+aq4\nJVtw0DMfoycKGD2bBNOLLCnQ03AqX7zMIfNlLG6UjNhKZGLYF3CjgdswgdgwHQYD\nVR0OBBYEFFw7Uwr253lGLmsLJUIjFHFHWanfMB8GA1UdIwQYMBaAFFw7Uwr253lG\nLmsLJUIjFHFHWanfMA8GA1UdEwEB/wQFMAMBAf8wDgYDVR0PAQH/BAQDAgGmMB0G\nA1UdJQQWMBQGCCsGAQUFBwMBBggrBgEFBQcDAjBWBgNVHREETzBNhwTAqESdghlj\nYTEuYnV5ZXIuZWxlY3Ryb2thcnQuY29tghljYTEtYnV5ZXItZWxlY3Ryb2thcnQt\nY29tgglsb2NhbGhvc3SHBH8AAAEwCgYIKoZIzj0EAwIDSAAwRQIgb3QKrHLMkjrG\nUuosJ1Q038+Bd5KLdRBffKBWlsjVdE8CIQCr69wvSNJ49p4WtB8WRx7JdDBKtPIv\n+RwtxW4PvfSYpw==\n-----END CERTIFICATE-----"]
      },
      "httpOptions": { "verify": "false" },
      "caName": "ca1",
      "registrar": { "enrollId": "admin", "enrollSecret": "adminpw" }
    }
  },
  "entityMatchers": {
    "orderer": [
      { "mappedHost": "orderer1.electrokart.com",
        "pattern": "(\\w*)orderer1.electrokart.com(\\w*)",
        "sslTargetOverrideUrlSubstitutionExp": "orderer1.electrokart.com",
        "urlSubstitutionExp": "192.168.68.157:7009"
      },
      { "mappedHost": "orderer2.electrokart.com",
        "pattern": "(\\w*)orderer2.electrokart.com(\\w*)",
        "sslTargetOverrideUrlSubstitutionExp": "orderer2.electrokart.com",
        "urlSubstitutionExp": "192.168.68.157:7010"
      },
      { "mappedHost": "orderer3.electrokart.com",
        "pattern": "(\\w*)orderer3.electrokart.com(\\w*)",
        "sslTargetOverrideUrlSubstitutionExp": "orderer3.electrokart.com",
        "urlSubstitutionExp": "192.168.68.157:7011"
      }
    ],
    "peer": [
      { "mappedHost": "peer1.manufacturer.electrokart.com",
        "pattern": "(\\w*)peer1.manufacturer.electrokart.com(\\w*)",
        "sslTargetOverrideUrlSubstitutionExp": "peer1.manufacturer.electrokart.com",
        "urlSubstitutionExp": "192.168.68.157:7003"
      },
      { "mappedHost": "peer1.dealer.electrokart.com",
        "pattern": "(\\w*)peer1.dealer.electrokart.com(\\w*)",
        "sslTargetOverrideUrlSubstitutionExp": "peer1.dealer.electrokart.com",
        "urlSubstitutionExp": "192.168.68.157:7004"
      },
      { "mappedHost": "peer1.buyer.electrokart.com",
        "pattern": "(\\w*)peer1.buyer.electrokart.com(\\w*)",
        "sslTargetOverrideUrlSubstitutionExp": "peer1.buyer.electrokart.com",
        "urlSubstitutionExp": "192.168.68.157:7005"
      }
    ],
  "certificateAuthorities": [
      { "mappedHost": "ca1.manufacturer.electrokart.com",
        "pattern": "(\\w*)ca1.manufacturer.electrokart.com(\\w*)",
        "sslTargetOverrideUrlSubstitutionExp": "ca1.manufacturer.electrokart.com",
        "urlSubstitutionExp": "192.168.68.157:7000"
      },
      { "mappedHost": "ca1.dealer.electrokart.com",
        "pattern": "(\\w*)ca1.dealer.electrokart.com(\\w*)",
        "sslTargetOverrideUrlSubstitutionExp": "ca1.dealer.electrokart.com",
        "urlSubstitutionExp": "192.168.68.157:7001"
      },
      { "mappedHost": "ca1.buyer.electrokart.com",
        "pattern": "(\\w*)ca1.buyer.electrokart.com(\\w*)",
        "sslTargetOverrideUrlSubstitutionExp": "ca1.buyer.electrokart.com",
        "urlSubstitutionExp": "192.168.68.157:7002"
      }
    ]
  }
}
