{
  "Admin@buyer.electrokart.com": {
    "key": "Admin@buyer.electrokart.com",
    "org": "buyer.electrokart.com",
    "path": "/home/vars/keyfiles/peerOrganizations/buyer.electrokart.com/users/Admin@buyer.electrokart.com/msp/keystore/priv_sk",
    "pkey": "keyfiles/peerOrganizations/buyer.electrokart.com/users/Admin@buyer.electrokart.com/msp/keystore/priv_sk",
    "type": "users"
  },
  "Admin@dealer.electrokart.com": {
    "key": "Admin@dealer.electrokart.com",
    "org": "dealer.electrokart.com",
    "path": "/home/vars/keyfiles/peerOrganizations/dealer.electrokart.com/users/Admin@dealer.electrokart.com/msp/keystore/priv_sk",
    "pkey": "keyfiles/peerOrganizations/dealer.electrokart.com/users/Admin@dealer.electrokart.com/msp/keystore/priv_sk",
    "type": "users"
  },
  "Admin@electrokart.com": {
    "key": "Admin@electrokart.com",
    "org": "electrokart.com",
    "path": "/home/vars/keyfiles/ordererOrganizations/electrokart.com/users/Admin@electrokart.com/msp/keystore/priv_sk",
    "pkey": "keyfiles/ordererOrganizations/electrokart.com/users/Admin@electrokart.com/msp/keystore/priv_sk",
    "type": "users"
  },
  "Admin@manufacturer.electrokart.com": {
    "key": "Admin@manufacturer.electrokart.com",
    "org": "manufacturer.electrokart.com",
    "path": "/home/vars/keyfiles/peerOrganizations/manufacturer.electrokart.com/users/Admin@manufacturer.electrokart.com/msp/keystore/priv_sk",
    "pkey": "keyfiles/peerOrganizations/manufacturer.electrokart.com/users/Admin@manufacturer.electrokart.com/msp/keystore/priv_sk",
    "type": "users"
  },
  "buyer.electrokart.com": {
    "key": "buyer.electrokart.com",
    "org": "buyer.electrokart.com",
    "path": "/home/vars/keyfiles/peerOrganizations/buyer.electrokart.com/ca/priv_sk",
    "pkey": "keyfiles/peerOrganizations/buyer.electrokart.com/ca/priv_sk",
    "type": "ca"
  },
  "buyer.electrokart.com.tlsca": {
    "key": "buyer.electrokart.com",
    "org": "buyer.electrokart.com",
    "path": "/home/vars/keyfiles/peerOrganizations/buyer.electrokart.com/tlsca/priv_sk",
    "pkey": "keyfiles/peerOrganizations/buyer.electrokart.com/tlsca/priv_sk",
    "type": "tlsca"
  },
  "dealer.electrokart.com": {
    "key": "dealer.electrokart.com",
    "org": "dealer.electrokart.com",
    "path": "/home/vars/keyfiles/peerOrganizations/dealer.electrokart.com/ca/priv_sk",
    "pkey": "keyfiles/peerOrganizations/dealer.electrokart.com/ca/priv_sk",
    "type": "ca"
  },
  "dealer.electrokart.com.tlsca": {
    "key": "dealer.electrokart.com",
    "org": "dealer.electrokart.com",
    "path": "/home/vars/keyfiles/peerOrganizations/dealer.electrokart.com/tlsca/priv_sk",
    "pkey": "keyfiles/peerOrganizations/dealer.electrokart.com/tlsca/priv_sk",
    "type": "tlsca"
  },
  "electrokart.com": {
    "key": "electrokart.com",
    "org": "electrokart.com",
    "path": "/home/vars/keyfiles/ordererOrganizations/electrokart.com/ca/priv_sk",
    "pkey": "keyfiles/ordererOrganizations/electrokart.com/ca/priv_sk",
    "type": "ca"
  },
  "electrokart.com.tlsca": {
    "key": "electrokart.com",
    "org": "electrokart.com",
    "path": "/home/vars/keyfiles/ordererOrganizations/electrokart.com/tlsca/priv_sk",
    "pkey": "keyfiles/ordererOrganizations/electrokart.com/tlsca/priv_sk",
    "type": "tlsca"
  },
  "manufacturer.electrokart.com": {
    "key": "manufacturer.electrokart.com",
    "org": "manufacturer.electrokart.com",
    "path": "/home/vars/keyfiles/peerOrganizations/manufacturer.electrokart.com/ca/priv_sk",
    "pkey": "keyfiles/peerOrganizations/manufacturer.electrokart.com/ca/priv_sk",
    "type": "ca"
  },
  "manufacturer.electrokart.com.tlsca": {
    "key": "manufacturer.electrokart.com",
    "org": "manufacturer.electrokart.com",
    "path": "/home/vars/keyfiles/peerOrganizations/manufacturer.electrokart.com/tlsca/priv_sk",
    "pkey": "keyfiles/peerOrganizations/manufacturer.electrokart.com/tlsca/priv_sk",
    "type": "tlsca"
  },
  "orderer1.electrokart.com": {
    "key": "orderer1.electrokart.com",
    "org": "electrokart.com",
    "path": "/home/vars/keyfiles/ordererOrganizations/electrokart.com/orderers/orderer1.electrokart.com/msp/keystore/priv_sk",
    "pkey": "keyfiles/ordererOrganizations/electrokart.com/orderers/orderer1.electrokart.com/msp/keystore/priv_sk",
    "type": "orderers"
  },
  "orderer2.electrokart.com": {
    "key": "orderer2.electrokart.com",
    "org": "electrokart.com",
    "path": "/home/vars/keyfiles/ordererOrganizations/electrokart.com/orderers/orderer2.electrokart.com/msp/keystore/priv_sk",
    "pkey": "keyfiles/ordererOrganizations/electrokart.com/orderers/orderer2.electrokart.com/msp/keystore/priv_sk",
    "type": "orderers"
  },
  "orderer3.electrokart.com": {
    "key": "orderer3.electrokart.com",
    "org": "electrokart.com",
    "path": "/home/vars/keyfiles/ordererOrganizations/electrokart.com/orderers/orderer3.electrokart.com/msp/keystore/priv_sk",
    "pkey": "keyfiles/ordererOrganizations/electrokart.com/orderers/orderer3.electrokart.com/msp/keystore/priv_sk",
    "type": "orderers"
  },
  "peer1.buyer.electrokart.com": {
    "key": "peer1.buyer.electrokart.com",
    "org": "buyer.electrokart.com",
    "path": "/home/vars/keyfiles/peerOrganizations/buyer.electrokart.com/peers/peer1.buyer.electrokart.com/msp/keystore/priv_sk",
    "pkey": "keyfiles/peerOrganizations/buyer.electrokart.com/peers/peer1.buyer.electrokart.com/msp/keystore/priv_sk",
    "type": "peers"
  },
  "peer1.dealer.electrokart.com": {
    "key": "peer1.dealer.electrokart.com",
    "org": "dealer.electrokart.com",
    "path": "/home/vars/keyfiles/peerOrganizations/dealer.electrokart.com/peers/peer1.dealer.electrokart.com/msp/keystore/priv_sk",
    "pkey": "keyfiles/peerOrganizations/dealer.electrokart.com/peers/peer1.dealer.electrokart.com/msp/keystore/priv_sk",
    "type": "peers"
  },
  "peer1.manufacturer.electrokart.com": {
    "key": "peer1.manufacturer.electrokart.com",
    "org": "manufacturer.electrokart.com",
    "path": "/home/vars/keyfiles/peerOrganizations/manufacturer.electrokart.com/peers/peer1.manufacturer.electrokart.com/msp/keystore/priv_sk",
    "pkey": "keyfiles/peerOrganizations/manufacturer.electrokart.com/peers/peer1.manufacturer.electrokart.com/msp/keystore/priv_sk",
    "type": "peers"
  }
}